/Users/Manish/Work/Bitbucket/clinics-backend/Source_Code/Middle_Layer/HPPClinicsWorkspace/HPPClinicsCARestApp/src/main/java/com/tcs/hpp/clinics/services/clinicadmin/jaxb/OperationalRoleMasterRequest.java
/Users/Manish/Work/Bitbucket/clinics-backend/Source_Code/Middle_Layer/HPPClinicsWorkspace/HPPClinicsCARestApp/src/main/java/com/tcs/hpp/clinics/services/clinicadmin/jaxb/ResetPasswordResponse.java
/Users/Manish/Work/Bitbucket/clinics-backend/Source_Code/Middle_Layer/HPPClinicsWorkspace/HPPClinicsCARestApp/src/main/java/com/tcs/hpp/clinics/services/clinicadmin/jaxb/SearchUserRequest.java
/Users/Manish/Work/Bitbucket/clinics-backend/Source_Code/Middle_Layer/HPPClinicsWorkspace/HPPClinicsCARestApp/src/main/java/com/tcs/hpp/clinics/services/clinicadmin/jaxb/UpdateServiceResponse.java
/Users/Manish/Work/Bitbucket/clinics-backend/Source_Code/Middle_Layer/HPPClinicsWorkspace/HPPClinicsCARestApp/src/main/java/com/tcs/hpp/clinics/services/clinicadmin/jaxb/VerifyUserLoginNameRequest.java
/Users/Manish/Work/Bitbucket/clinics-backend/Source_Code/Middle_Layer/HPPClinicsWorkspace/HPPClinicsCARestApp/src/main/java/com/tcs/hpp/clinics/services/clinicadmin/jaxb/OtpVerificationResponse.java
/Users/Manish/Work/Bitbucket/clinics-backend/Source_Code/Middle_Layer/HPPClinicsWorkspace/HPPClinicsCARestApp/src/main/java/com/tcs/hpp/clinics/services/clinicadmin/jaxb/GlobalClinicServcieSearchRequest.java
/Users/Manish/Work/Bitbucket/clinics-backend/Source_Code/Middle_Layer/HPPClinicsWorkspace/HPPClinicsCARestApp/src/main/java/com/tcs/hpp/clinics/services/clinicadmin/jaxb/ServiceCategoryMasterRequest.java
/Users/Manish/Work/Bitbucket/clinics-backend/Source_Code/Middle_Layer/HPPClinicsWorkspace/HPPClinicsCARestApp/src/main/java/com/tcs/hpp/clinics/services/clinicadmin/jaxb/CreateSystemParamResponse.java
/Users/Manish/Work/Bitbucket/clinics-backend/Source_Code/Middle_Layer/HPPClinicsWorkspace/HPPClinicsCARestApp/src/main/java/com/tcs/hpp/clinics/services/clinicadmin/jaxb/UpdateCommunicationResponse.java
/Users/Manish/Work/Bitbucket/clinics-backend/Source_Code/Middle_Layer/HPPClinicsWorkspace/HPPClinicsCARestApp/src/main/java/com/tcs/hpp/clinics/services/clinicadmin/jaxb/SearchUserResponse.java
/Users/Manish/Work/Bitbucket/clinics-backend/Source_Code/Middle_Layer/HPPClinicsWorkspace/HPPClinicsCARestApp/src/main/java/com/tcs/hpp/clinics/services/clinicadmin/jaxb/AutoSearchSpecialityResponse.java
/Users/Manish/Work/Bitbucket/clinics-backend/Source_Code/Middle_Layer/HPPClinicsWorkspace/HPPClinicsCARestApp/src/main/java/com/tcs/hpp/clinics/services/clinicadmin/util/HPPClinicAdminUtil.java
/Users/Manish/Work/Bitbucket/clinics-backend/Source_Code/Middle_Layer/HPPClinicsWorkspace/HPPClinicsCARestApp/src/main/java/com/tcs/hpp/clinics/services/clinicadmin/jaxb/ServiceClassificationMasterResponse.java
/Users/Manish/Work/Bitbucket/clinics-backend/Source_Code/Middle_Layer/HPPClinicsWorkspace/HPPClinicsCARestApp/src/main/java/com/tcs/hpp/clinics/resource/HPPClinicsServiceMasterService.java
/Users/Manish/Work/Bitbucket/clinics-backend/Source_Code/Middle_Layer/HPPClinicsWorkspace/HPPClinicsCARestApp/src/main/java/com/tcs/hpp/clinics/services/clinicadmin/jaxb/CreateServiceRequest.java
/Users/Manish/Work/Bitbucket/clinics-backend/Source_Code/Middle_Layer/HPPClinicsWorkspace/HPPClinicsCARestApp/src/main/java/com/tcs/hpp/clinics/filter/VersionedBean.java
/Users/Manish/Work/Bitbucket/clinics-backend/Source_Code/Middle_Layer/HPPClinicsWorkspace/HPPClinicsCARestApp/src/main/java/com/tcs/hpp/clinics/services/clinicadmin/jaxb/OperationalRoleMasterResponse.java
/Users/Manish/Work/Bitbucket/clinics-backend/Source_Code/Middle_Layer/HPPClinicsWorkspace/HPPClinicsCARestApp/src/main/java/com/tcs/hpp/clinics/services/clinicadmin/jaxb/UpdateServiceRequest.java
/Users/Manish/Work/Bitbucket/clinics-backend/Source_Code/Middle_Layer/HPPClinicsWorkspace/HPPClinicsCARestApp/src/main/java/com/tcs/hpp/clinics/services/clinicadmin/jaxb/GetServiceResponse.java
/Users/Manish/Work/Bitbucket/clinics-backend/Source_Code/Middle_Layer/HPPClinicsWorkspace/HPPClinicsCARestApp/src/main/java/com/tcs/hpp/clinics/services/clinicadmin/jaxb/ServiceCategoryMasterResponse.java
/Users/Manish/Work/Bitbucket/clinics-backend/Source_Code/Middle_Layer/HPPClinicsWorkspace/HPPClinicsCARestApp/src/main/java/com/tcs/hpp/clinics/services/clinicadmin/jaxb/GlobalUserSearchResponse.java
/Users/Manish/Work/Bitbucket/clinics-backend/Source_Code/Middle_Layer/HPPClinicsWorkspace/HPPClinicsCARestApp/src/main/java/com/tcs/hpp/clinics/services/clinicadmin/jaxb/VerifyUserLoginNameResponse.java
/Users/Manish/Work/Bitbucket/clinics-backend/Source_Code/Middle_Layer/HPPClinicsWorkspace/HPPClinicsCARestApp/src/main/java/com/tcs/hpp/clinics/services/clinicadmin/jaxb/SearchGlobalPatientsRequest.java
/Users/Manish/Work/Bitbucket/clinics-backend/Source_Code/Middle_Layer/HPPClinicsWorkspace/HPPClinicsCARestApp/src/main/java/com/tcs/hpp/clinics/services/clinicadmin/jaxb/UpdateTariffResponse.java
/Users/Manish/Work/Bitbucket/clinics-backend/Source_Code/Middle_Layer/HPPClinicsWorkspace/HPPClinicsCARestApp/src/main/java/com/tcs/hpp/clinics/services/clinicadmin/jaxb/UserSignUpValidateRequest.java
/Users/Manish/Work/Bitbucket/clinics-backend/Source_Code/Middle_Layer/HPPClinicsWorkspace/HPPClinicsCARestApp/src/main/java/com/tcs/hpp/clinics/services/clinicadmin/jaxb/AuthenticateUserResponse.java
/Users/Manish/Work/Bitbucket/clinics-backend/Source_Code/Middle_Layer/HPPClinicsWorkspace/HPPClinicsCARestApp/src/main/java/com/tcs/hpp/clinics/services/clinicadmin/jaxb/CreateSystemParamRequest.java
/Users/Manish/Work/Bitbucket/clinics-backend/Source_Code/Middle_Layer/HPPClinicsWorkspace/HPPClinicsCARestApp/src/main/java/com/tcs/hpp/clinics/services/clinicadmin/jaxb/ForgotPasswordResponse.java
/Users/Manish/Work/Bitbucket/clinics-backend/Source_Code/Middle_Layer/HPPClinicsWorkspace/HPPClinicsCARestApp/src/main/java/com/tcs/hpp/clinics/services/clinicadmin/jaxb/ServiceClassificationMasterRequest.java
/Users/Manish/Work/Bitbucket/clinics-backend/Source_Code/Middle_Layer/HPPClinicsWorkspace/HPPClinicsCARestApp/src/main/java/com/tcs/hpp/clinics/services/clinicadmin/jaxb/ResendSMSResponse.java
/Users/Manish/Work/Bitbucket/clinics-backend/Source_Code/Middle_Layer/HPPClinicsWorkspace/HPPClinicsCARestApp/src/main/java/com/tcs/hpp/clinics/services/clinicadmin/jaxb/AutoSearchUserResponse.java
/Users/Manish/Work/Bitbucket/clinics-backend/Source_Code/Middle_Layer/HPPClinicsWorkspace/HPPClinicsCARestApp/src/main/java/com/tcs/hpp/clinics/services/clinicadmin/jaxb/OtpVerificationRequest.java
/Users/Manish/Work/Bitbucket/clinics-backend/Source_Code/Middle_Layer/HPPClinicsWorkspace/HPPClinicsCARestApp/src/main/java/com/tcs/hpp/clinics/services/clinicadmin/jaxb/UpdateSystemParamResponse.java
/Users/Manish/Work/Bitbucket/clinics-backend/Source_Code/Middle_Layer/HPPClinicsWorkspace/HPPClinicsCARestApp/src/main/java/com/tcs/hpp/clinics/services/clinicadmin/jaxb/GetTariffRequest.java
/Users/Manish/Work/Bitbucket/clinics-backend/Source_Code/Middle_Layer/HPPClinicsWorkspace/HPPClinicsCARestApp/src/main/java/com/tcs/hpp/clinics/services/clinicadmin/jaxb/SiteMasterResponse.java
/Users/Manish/Work/Bitbucket/clinics-backend/Source_Code/Middle_Layer/HPPClinicsWorkspace/HPPClinicsCARestApp/src/main/java/com/tcs/hpp/clinics/services/clinicadmin/jaxb/ChangePasswordResponse.java
/Users/Manish/Work/Bitbucket/clinics-backend/Source_Code/Middle_Layer/HPPClinicsWorkspace/HPPClinicsCARestApp/src/main/java/com/tcs/hpp/clinics/services/clinicadmin/jaxb/UpdateUserRequest.java
/Users/Manish/Work/Bitbucket/clinics-backend/Source_Code/Middle_Layer/HPPClinicsWorkspace/HPPClinicsCARestApp/src/main/java/com/tcs/hpp/clinics/services/clinicadmin/jaxb/SiteMasterRequest.java
/Users/Manish/Work/Bitbucket/clinics-backend/Source_Code/Middle_Layer/HPPClinicsWorkspace/HPPClinicsCARestApp/src/main/java/com/tcs/hpp/clinics/services/clinicadmin/convertor/HPPClinicAdminJAXBConvertor.java
/Users/Manish/Work/Bitbucket/clinics-backend/Source_Code/Middle_Layer/HPPClinicsWorkspace/HPPClinicsCARestApp/src/main/java/com/tcs/hpp/clinics/resource/HPPClinicsAppUpdateServiceHelper.java
/Users/Manish/Work/Bitbucket/clinics-backend/Source_Code/Middle_Layer/HPPClinicsWorkspace/HPPClinicsCARestApp/src/main/java/com/tcs/hpp/clinics/services/clinicadmin/jaxb/SearchGlobalPatientsResponse.java
/Users/Manish/Work/Bitbucket/clinics-backend/Source_Code/Middle_Layer/HPPClinicsWorkspace/HPPClinicsCARestApp/src/main/java/com/tcs/hpp/clinics/services/clinicadmin/jaxb/ForgotPasswordRequest.java
/Users/Manish/Work/Bitbucket/clinics-backend/Source_Code/Middle_Layer/HPPClinicsWorkspace/HPPClinicsCARestApp/src/main/java/com/tcs/hpp/clinics/services/clinicadmin/jaxb/CreateServiceResponse.java
/Users/Manish/Work/Bitbucket/clinics-backend/Source_Code/Middle_Layer/HPPClinicsWorkspace/HPPClinicsCARestApp/src/main/java/com/tcs/hpp/clinics/resource/HPPClinicsTariffMasterService.java
/Users/Manish/Work/Bitbucket/clinics-backend/Source_Code/Middle_Layer/HPPClinicsWorkspace/HPPClinicsCARestApp/src/main/java/com/tcs/hpp/clinics/services/clinicadmin/jaxb/UserStatusUpdateResponse.java
/Users/Manish/Work/Bitbucket/clinics-backend/Source_Code/Middle_Layer/HPPClinicsWorkspace/HPPClinicsCARestApp/src/main/java/com/tcs/hpp/clinics/services/clinicadmin/jaxb/UpdateUserConsultationTabDetailsRequest.java
/Users/Manish/Work/Bitbucket/clinics-backend/Source_Code/Middle_Layer/HPPClinicsWorkspace/HPPClinicsCARestApp/src/main/java/com/tcs/hpp/clinics/services/clinicadmin/jaxb/SearchServiceResponse.java
/Users/Manish/Work/Bitbucket/clinics-backend/Source_Code/Middle_Layer/HPPClinicsWorkspace/HPPClinicsCARestApp/src/main/java/com/tcs/hpp/clinics/services/clinicadmin/jaxb/GetServiceRequest.java
/Users/Manish/Work/Bitbucket/clinics-backend/Source_Code/Middle_Layer/HPPClinicsWorkspace/HPPClinicsCARestApp/src/main/java/com/tcs/hpp/clinics/services/clinicadmin/jaxb/TermAndConditionRequest.java
/Users/Manish/Work/Bitbucket/clinics-backend/Source_Code/Middle_Layer/HPPClinicsWorkspace/HPPClinicsCARestApp/src/main/java/com/tcs/hpp/clinics/services/clinicadmin/jaxb/LogoutResponse.java
/Users/Manish/Work/Bitbucket/clinics-backend/Source_Code/Middle_Layer/HPPClinicsWorkspace/HPPClinicsCARestApp/src/main/java/com/tcs/hpp/clinics/services/clinicadmin/jaxb/UpdateSystemParamRequest.java
/Users/Manish/Work/Bitbucket/clinics-backend/Source_Code/Middle_Layer/HPPClinicsWorkspace/HPPClinicsCARestApp/src/main/java/com/tcs/hpp/clinics/services/clinicadmin/jaxb/AuthenticateUserRequest.java
/Users/Manish/Work/Bitbucket/clinics-backend/Source_Code/Middle_Layer/HPPClinicsWorkspace/HPPClinicsCARestApp/src/main/java/com/tcs/hpp/clinics/services/clinicadmin/jaxb/TermAndConditionResponse.java
/Users/Manish/Work/Bitbucket/clinics-backend/Source_Code/Middle_Layer/HPPClinicsWorkspace/HPPClinicsCARestApp/src/main/java/com/tcs/hpp/clinics/services/clinicadmin/jaxb/ConfigParamMasterResponse.java
/Users/Manish/Work/Bitbucket/clinics-backend/Source_Code/Middle_Layer/HPPClinicsWorkspace/HPPClinicsCARestApp/src/main/java/com/tcs/hpp/clinics/services/clinicadmin/jaxb/AutoSearchSysParamRequest.java
/Users/Manish/Work/Bitbucket/clinics-backend/Source_Code/Middle_Layer/HPPClinicsWorkspace/HPPClinicsCARestApp/src/main/java/com/tcs/hpp/clinics/services/clinicadmin/jaxb/GetUserBasicDetailsResponse.java
/Users/Manish/Work/Bitbucket/clinics-backend/Source_Code/Middle_Layer/HPPClinicsWorkspace/HPPClinicsCARestApp/src/main/java/com/tcs/hpp/clinics/services/clinicadmin/jaxb/UserAssocToClinicResponse.java
/Users/Manish/Work/Bitbucket/clinics-backend/Source_Code/Middle_Layer/HPPClinicsWorkspace/HPPClinicsCARestApp/src/main/java/com/tcs/hpp/clinics/services/clinicadmin/jaxb/GetUserDetailsRequest.java
/Users/Manish/Work/Bitbucket/clinics-backend/Source_Code/Middle_Layer/HPPClinicsWorkspace/HPPClinicsCARestApp/src/main/java/com/tcs/hpp/clinics/resource/HPPClinicsGlobalSearchServiceHelper.java
/Users/Manish/Work/Bitbucket/clinics-backend/Source_Code/Middle_Layer/HPPClinicsWorkspace/HPPClinicsCARestApp/src/main/java/com/tcs/hpp/clinics/services/clinicadmin/jaxb/FetchAppUpdateRequest.java
/Users/Manish/Work/Bitbucket/clinics-backend/Source_Code/Middle_Layer/HPPClinicsWorkspace/HPPClinicsCARestApp/src/main/java/com/tcs/hpp/clinics/services/clinicadmin/jaxb/UserStatusUpdateRequest.java
/Users/Manish/Work/Bitbucket/clinics-backend/Source_Code/Middle_Layer/HPPClinicsWorkspace/HPPClinicsCARestApp/src/main/java/com/tcs/hpp/clinics/services/clinicadmin/jaxb/UserMasterRequest.java
/Users/Manish/Work/Bitbucket/clinics-backend/Source_Code/Middle_Layer/HPPClinicsWorkspace/HPPClinicsCARestApp/src/main/java/com/tcs/hpp/clinics/services/clinicadmin/jaxb/ConfigParamMasterRequest.java
/Users/Manish/Work/Bitbucket/clinics-backend/Source_Code/Middle_Layer/HPPClinicsWorkspace/HPPClinicsCARestApp/src/main/java/com/tcs/hpp/clinics/services/clinicadmin/jaxb/AutoSearchUserRequest.java
/Users/Manish/Work/Bitbucket/clinics-backend/Source_Code/Middle_Layer/HPPClinicsWorkspace/HPPClinicsCARestApp/src/main/java/com/tcs/hpp/clinics/services/clinicadmin/jaxb/CreateUserResponse.java
/Users/Manish/Work/Bitbucket/clinics-backend/Source_Code/Middle_Layer/HPPClinicsWorkspace/HPPClinicsCARestApp/src/main/java/com/tcs/hpp/clinics/services/clinicadmin/jaxb/GlobalUserSearchRequest.java
/Users/Manish/Work/Bitbucket/clinics-backend/Source_Code/Middle_Layer/HPPClinicsWorkspace/HPPClinicsCARestApp/src/main/java/com/tcs/hpp/clinics/services/clinicadmin/jaxb/CreateTariffResponse.java
/Users/Manish/Work/Bitbucket/clinics-backend/Source_Code/Middle_Layer/HPPClinicsWorkspace/HPPClinicsCARestApp/src/main/java/com/tcs/hpp/clinics/services/clinicadmin/jaxb/FetchAppUpdateResponse.java
/Users/Manish/Work/Bitbucket/clinics-backend/Source_Code/Middle_Layer/HPPClinicsWorkspace/HPPClinicsCARestApp/src/main/java/com/tcs/hpp/clinics/services/clinicadmin/jaxb/GetTariffResponse.java
/Users/Manish/Work/Bitbucket/clinics-backend/Source_Code/Middle_Layer/HPPClinicsWorkspace/HPPClinicsCARestApp/src/main/java/com/tcs/hpp/clinics/services/clinicadmin/jaxb/LogoutRequest.java
/Users/Manish/Work/Bitbucket/clinics-backend/Source_Code/Middle_Layer/HPPClinicsWorkspace/HPPClinicsCARestApp/src/main/java/com/tcs/hpp/clinics/services/clinicadmin/jaxb/HomePageServiceResponse.java
/Users/Manish/Work/Bitbucket/clinics-backend/Source_Code/Middle_Layer/HPPClinicsWorkspace/HPPClinicsCARestApp/src/main/java/com/tcs/hpp/clinics/services/clinicadmin/jaxb/SearchServiceRequest.java
/Users/Manish/Work/Bitbucket/clinics-backend/Source_Code/Middle_Layer/HPPClinicsWorkspace/HPPClinicsCARestApp/src/main/java/com/tcs/hpp/clinics/resource/HPPClinicsUserAdminService.java
/Users/Manish/Work/Bitbucket/clinics-backend/Source_Code/Middle_Layer/HPPClinicsWorkspace/HPPClinicsCARestApp/src/main/java/com/tcs/hpp/clinics/services/clinicadmin/jaxb/UserSignUpValidateResponse.java
/Users/Manish/Work/Bitbucket/clinics-backend/Source_Code/Middle_Layer/HPPClinicsWorkspace/HPPClinicsCARestApp/src/main/java/com/tcs/hpp/clinics/filter/Version.java
/Users/Manish/Work/Bitbucket/clinics-backend/Source_Code/Middle_Layer/HPPClinicsWorkspace/HPPClinicsCARestApp/src/main/java/com/tcs/hpp/clinics/resource/HPPClinicsConfigParamMasterService.java
/Users/Manish/Work/Bitbucket/clinics-backend/Source_Code/Middle_Layer/HPPClinicsWorkspace/HPPClinicsCARestApp/src/main/java/com/tcs/hpp/clinics/resource/HPPClinicsTariffMasterServiceHelper.java
/Users/Manish/Work/Bitbucket/clinics-backend/Source_Code/Middle_Layer/HPPClinicsWorkspace/HPPClinicsCARestApp/src/main/java/com/tcs/hpp/clinics/services/clinicadmin/jaxb/CreateUserRequest.java
/Users/Manish/Work/Bitbucket/clinics-backend/Source_Code/Middle_Layer/HPPClinicsWorkspace/HPPClinicsCARestApp/src/main/java/com/tcs/hpp/clinics/services/clinicadmin/jaxb/GetUserBasicDetailsRequest.java
/Users/Manish/Work/Bitbucket/clinics-backend/Source_Code/Middle_Layer/HPPClinicsWorkspace/HPPClinicsCARestApp/src/main/java/com/tcs/hpp/clinics/services/clinicadmin/jaxb/GlobalClinicServcieSearchResponse.java
/Users/Manish/Work/Bitbucket/clinics-backend/Source_Code/Middle_Layer/HPPClinicsWorkspace/HPPClinicsCARestApp/src/main/java/com/tcs/hpp/clinics/services/clinicadmin/jaxb/ServiceMasterRequest.java
/Users/Manish/Work/Bitbucket/clinics-backend/Source_Code/Middle_Layer/HPPClinicsWorkspace/HPPClinicsCARestApp/src/main/java/com/tcs/hpp/clinics/services/clinicadmin/jaxb/ErrorResponse.java
/Users/Manish/Work/Bitbucket/clinics-backend/Source_Code/Middle_Layer/HPPClinicsWorkspace/HPPClinicsCARestApp/src/main/java/com/tcs/hpp/clinics/services/clinicadmin/jaxb/CreateTariffRequest.java
/Users/Manish/Work/Bitbucket/clinics-backend/Source_Code/Middle_Layer/HPPClinicsWorkspace/HPPClinicsCARestApp/src/main/java/com/tcs/hpp/clinics/services/clinicadmin/jaxb/GetSystemParamRequest.java
/Users/Manish/Work/Bitbucket/clinics-backend/Source_Code/Middle_Layer/HPPClinicsWorkspace/HPPClinicsCARestApp/src/main/java/com/tcs/hpp/clinics/services/clinicadmin/jaxb/LocationMasterRequest.java
/Users/Manish/Work/Bitbucket/clinics-backend/Source_Code/Middle_Layer/HPPClinicsWorkspace/HPPClinicsCARestApp/src/main/java/com/tcs/hpp/clinics/services/clinicadmin/jaxb/CreateUserAuthenticationResponse.java
/Users/Manish/Work/Bitbucket/clinics-backend/Source_Code/Middle_Layer/HPPClinicsWorkspace/HPPClinicsCARestApp/src/main/java/com/tcs/hpp/clinics/services/clinicadmin/jaxb/ChangePasswordRequest.java
/Users/Manish/Work/Bitbucket/clinics-backend/Source_Code/Middle_Layer/HPPClinicsWorkspace/HPPClinicsCARestApp/src/main/java/com/tcs/hpp/clinics/services/clinicadmin/jaxb/GetSpecialityResponse.java
/Users/Manish/Work/Bitbucket/clinics-backend/Source_Code/Middle_Layer/HPPClinicsWorkspace/HPPClinicsCARestApp/src/main/java/com/tcs/hpp/clinics/services/clinicadmin/jaxb/UpdateCommunicationRequest.java
/Users/Manish/Work/Bitbucket/clinics-backend/Source_Code/Middle_Layer/HPPClinicsWorkspace/HPPClinicsCARestApp/src/main/java/com/tcs/hpp/clinics/services/clinicadmin/jaxb/UserMasterResponse.java
/Users/Manish/Work/Bitbucket/clinics-backend/Source_Code/Middle_Layer/HPPClinicsWorkspace/HPPClinicsCARestApp/src/main/java/com/tcs/hpp/clinics/services/clinicadmin/jaxb/GetUserConsultationTabDetailsResponse.java
/Users/Manish/Work/Bitbucket/clinics-backend/Source_Code/Middle_Layer/HPPClinicsWorkspace/HPPClinicsCARestApp/src/main/java/com/tcs/hpp/clinics/services/clinicadmin/jaxb/AutoSearchSpecialityRequest.java
/Users/Manish/Work/Bitbucket/clinics-backend/Source_Code/Middle_Layer/HPPClinicsWorkspace/HPPClinicsCARestApp/src/main/java/com/tcs/hpp/clinics/services/clinicadmin/jaxb/LocationMasterResponse.java
/Users/Manish/Work/Bitbucket/clinics-backend/Source_Code/Middle_Layer/HPPClinicsWorkspace/HPPClinicsCARestApp/src/main/java/com/tcs/hpp/clinics/services/clinicadmin/jaxb/CommunicationConfigResponse.java
/Users/Manish/Work/Bitbucket/clinics-backend/Source_Code/Middle_Layer/HPPClinicsWorkspace/HPPClinicsCARestApp/src/main/java/com/tcs/hpp/clinics/services/clinicadmin/jaxb/AutoSearchSysParamResponse.java
/Users/Manish/Work/Bitbucket/clinics-backend/Source_Code/Middle_Layer/HPPClinicsWorkspace/HPPClinicsCARestApp/src/main/java/com/tcs/hpp/clinics/resource/HPPClinicsGlobalSearchService.java
/Users/Manish/Work/Bitbucket/clinics-backend/Source_Code/Middle_Layer/HPPClinicsWorkspace/HPPClinicsCARestApp/src/main/java/com/tcs/hpp/clinics/services/clinicadmin/jaxb/UpdateTariffRequest.java
/Users/Manish/Work/Bitbucket/clinics-backend/Source_Code/Middle_Layer/HPPClinicsWorkspace/HPPClinicsCARestApp/src/main/java/com/tcs/hpp/clinics/resource/HPPClinicsUserAdminServiceHelper.java
/Users/Manish/Work/Bitbucket/clinics-backend/Source_Code/Middle_Layer/HPPClinicsWorkspace/HPPClinicsCARestApp/src/main/java/com/tcs/hpp/clinics/services/clinicadmin/jaxb/GetUserDetailsResponse.java
/Users/Manish/Work/Bitbucket/clinics-backend/Source_Code/Middle_Layer/HPPClinicsWorkspace/HPPClinicsCARestApp/src/main/java/com/tcs/hpp/clinics/services/clinicadmin/jaxb/ServiceMasterResponse.java
/Users/Manish/Work/Bitbucket/clinics-backend/Source_Code/Middle_Layer/HPPClinicsWorkspace/HPPClinicsCARestApp/src/main/java/com/tcs/hpp/clinics/services/clinicadmin/jaxb/ResetPasswordRequest.java
/Users/Manish/Work/Bitbucket/clinics-backend/Source_Code/Middle_Layer/HPPClinicsWorkspace/HPPClinicsCARestApp/src/main/java/com/tcs/hpp/clinics/services/clinicadmin/jaxb/ResendSMSRequest.java
/Users/Manish/Work/Bitbucket/clinics-backend/Source_Code/Middle_Layer/HPPClinicsWorkspace/HPPClinicsCARestApp/src/main/java/com/tcs/hpp/clinics/resource/HPPClinicsServiceMasterServiceHelper.java
/Users/Manish/Work/Bitbucket/clinics-backend/Source_Code/Middle_Layer/HPPClinicsWorkspace/HPPClinicsCARestApp/src/main/java/com/tcs/hpp/clinics/services/clinicadmin/jaxb/UserAssocToClinicRequest.java
/Users/Manish/Work/Bitbucket/clinics-backend/Source_Code/Middle_Layer/HPPClinicsWorkspace/HPPClinicsCARestApp/src/main/java/com/tcs/hpp/clinics/resource/HPPClinicsAppUpdateService.java
/Users/Manish/Work/Bitbucket/clinics-backend/Source_Code/Middle_Layer/HPPClinicsWorkspace/HPPClinicsCARestApp/src/main/java/com/tcs/hpp/clinics/resource/HPPClinicsUserAdminMasterServiceHelper.java
/Users/Manish/Work/Bitbucket/clinics-backend/Source_Code/Middle_Layer/HPPClinicsWorkspace/HPPClinicsCARestApp/src/main/java/com/tcs/hpp/clinics/resource/HPPClinicsConfigParamMasterServiceHelper.java
/Users/Manish/Work/Bitbucket/clinics-backend/Source_Code/Middle_Layer/HPPClinicsWorkspace/HPPClinicsCARestApp/src/main/java/com/tcs/hpp/clinics/services/clinicadmin/jaxb/GetSystemParamResponse.java
/Users/Manish/Work/Bitbucket/clinics-backend/Source_Code/Middle_Layer/HPPClinicsWorkspace/HPPClinicsCARestApp/src/main/java/com/tcs/hpp/clinics/services/clinicadmin/jaxb/CreateUserAuthenticationRequest.java
/Users/Manish/Work/Bitbucket/clinics-backend/Source_Code/Middle_Layer/HPPClinicsWorkspace/HPPClinicsCARestApp/src/main/java/com/tcs/hpp/clinics/services/clinicadmin/jaxb/JaxbUser.java
/Users/Manish/Work/Bitbucket/clinics-backend/Source_Code/Middle_Layer/HPPClinicsWorkspace/HPPClinicsCARestApp/src/main/java/com/tcs/hpp/clinics/services/clinicadmin/jaxb/UpdateUserResponse.java
/Users/Manish/Work/Bitbucket/clinics-backend/Source_Code/Middle_Layer/HPPClinicsWorkspace/HPPClinicsCARestApp/src/main/java/com/tcs/hpp/clinics/services/clinicadmin/jaxb/GetSpecialityRequest.java
